\relax 
\providecommand\hyper@newdestlabel[2]{}
\providecommand\HyperFirstAtBeginDocument{\AtBeginDocument}
\HyperFirstAtBeginDocument{\ifx\hyper@anchor\@undefined
\global\let\oldcontentsline\contentsline
\gdef\contentsline#1#2#3#4{\oldcontentsline{#1}{#2}{#3}}
\global\let\oldnewlabel\newlabel
\gdef\newlabel#1#2{\newlabelxx{#1}#2}
\gdef\newlabelxx#1#2#3#4#5#6{\oldnewlabel{#1}{{#2}{#3}}}
\AtEndDocument{\ifx\hyper@anchor\@undefined
\let\contentsline\oldcontentsline
\let\newlabel\oldnewlabel
\fi}
\fi}
\global\let\hyper@last\relax 
\gdef\HyperFirstAtBeginDocument#1{#1}
\providecommand\HyField@AuxAddToFields[1]{}
\providecommand\HyField@AuxAddToCoFields[2]{}
\@writefile{toc}{\beamer@endinputifotherversion {3.24pt}}
\@writefile{nav}{\beamer@endinputifotherversion {3.24pt}}
\@writefile{nav}{\headcommand {\slideentry {0}{0}{1}{1/1}{}{0}}}
\@writefile{nav}{\headcommand {\beamer@framepages {1}{1}}}
\@writefile{nav}{\headcommand {\slideentry {0}{0}{2}{2/2}{}{0}}}
\@writefile{nav}{\headcommand {\beamer@framepages {2}{2}}}
\@writefile{toc}{\beamer@sectionintoc {1}{Overview}{3}{0}{1}}
\@writefile{nav}{\headcommand {\sectionentry {1}{Overview}{3}{Overview}{0}}}
\@writefile{nav}{\headcommand {\beamer@sectionpages {1}{2}}}
\@writefile{nav}{\headcommand {\beamer@subsectionpages {1}{2}}}
\@writefile{nav}{\headcommand {\slideentry {1}{0}{3}{3/5}{}{0}}}
\@writefile{nav}{\headcommand {\beamer@framepages {3}{5}}}
\citation{WirtFlow}
\newlabel{fig:crystal}{{1}{6}{Overview}{Doc-Start}{}}
\@writefile{snm}{\beamer@slide {fig:crystal}{6}}
\@writefile{nav}{\headcommand {\slideentry {1}{0}{4}{6/6}{}{0}}}
\@writefile{nav}{\headcommand {\beamer@framepages {6}{6}}}
\@writefile{nav}{\headcommand {\slideentry {1}{0}{5}{7/7}{}{0}}}
\@writefile{nav}{\headcommand {\beamer@framepages {7}{7}}}
\citation{GerchSax}
\citation{BIO}
\citation{PhaseLift}
\citation{WirtFlow}
\citation{FastPR}
\@writefile{nav}{\headcommand {\slideentry {1}{0}{6}{8/8}{}{0}}}
\@writefile{nav}{\headcommand {\beamer@framepages {8}{8}}}
\@writefile{toc}{\beamer@sectionintoc {2}{Literature Review}{9}{0}{2}}
\@writefile{nav}{\headcommand {\sectionentry {2}{Literature Review}{9}{Literature Review}{0}}}
\@writefile{nav}{\headcommand {\beamer@sectionpages {3}{8}}}
\@writefile{nav}{\headcommand {\beamer@subsectionpages {3}{8}}}
\newlabel{fig:GerchSax}{{2}{9}{Literature Review}{Doc-Start}{}}
\@writefile{snm}{\beamer@slide {fig:GerchSax}{9}}
\@writefile{nav}{\headcommand {\slideentry {2}{0}{7}{9/9}{}{0}}}
\@writefile{nav}{\headcommand {\beamer@framepages {9}{9}}}
\citation{GSDiss}
\citation{GSDiss}
\citation{GSDiss}
\@writefile{nav}{\headcommand {\slideentry {2}{0}{8}{10/12}{}{0}}}
\@writefile{nav}{\headcommand {\beamer@framepages {10}{12}}}
\@writefile{nav}{\headcommand {\slideentry {2}{0}{9}{13/15}{}{0}}}
\@writefile{nav}{\headcommand {\beamer@framepages {13}{15}}}
\citation{PhaseLift}
\citation{PhaseLift}
\@writefile{nav}{\headcommand {\slideentry {2}{0}{10}{16/17}{}{0}}}
\@writefile{nav}{\headcommand {\beamer@framepages {16}{17}}}
\citation{ChanEst}
\citation{ChanEst}
\@writefile{nav}{\headcommand {\slideentry {2}{0}{11}{18/19}{}{0}}}
\@writefile{nav}{\headcommand {\beamer@framepages {18}{19}}}
\@writefile{nav}{\headcommand {\slideentry {2}{0}{12}{20/23}{}{0}}}
\@writefile{nav}{\headcommand {\beamer@framepages {20}{23}}}
\@writefile{nav}{\headcommand {\slideentry {2}{0}{13}{24/24}{}{0}}}
\@writefile{nav}{\headcommand {\beamer@framepages {24}{24}}}
\@writefile{nav}{\headcommand {\slideentry {2}{0}{14}{25/26}{}{0}}}
\@writefile{nav}{\headcommand {\beamer@framepages {25}{26}}}
\@writefile{toc}{\beamer@sectionintoc {3}{Current/Future Work}{27}{0}{3}}
\@writefile{nav}{\headcommand {\sectionentry {3}{Current/Future Work}{27}{Current/Future Work}{0}}}
\@writefile{nav}{\headcommand {\beamer@sectionpages {9}{26}}}
\@writefile{nav}{\headcommand {\beamer@subsectionpages {9}{26}}}
\@writefile{nav}{\headcommand {\slideentry {3}{0}{15}{27/34}{}{0}}}
\@writefile{nav}{\headcommand {\beamer@framepages {27}{34}}}
\@writefile{nav}{\headcommand {\slideentry {3}{0}{16}{35/36}{}{0}}}
\@writefile{nav}{\headcommand {\beamer@framepages {35}{36}}}
\@writefile{nav}{\headcommand {\slideentry {3}{0}{17}{37/38}{}{0}}}
\@writefile{nav}{\headcommand {\beamer@framepages {37}{38}}}
\@writefile{nav}{\headcommand {\slideentry {3}{0}{18}{39/45}{}{0}}}
\@writefile{nav}{\headcommand {\beamer@framepages {39}{45}}}
\@writefile{nav}{\headcommand {\slideentry {3}{0}{19}{46/48}{}{0}}}
\@writefile{nav}{\headcommand {\beamer@framepages {46}{48}}}
\@writefile{nav}{\headcommand {\slideentry {3}{0}{20}{49/50}{}{0}}}
\@writefile{nav}{\headcommand {\beamer@framepages {49}{50}}}
\@writefile{nav}{\headcommand {\slideentry {3}{0}{21}{51/52}{}{0}}}
\@writefile{nav}{\headcommand {\beamer@framepages {51}{52}}}
\@writefile{nav}{\headcommand {\slideentry {3}{0}{22}{53/55}{}{0}}}
\@writefile{nav}{\headcommand {\beamer@framepages {53}{55}}}
\@writefile{nav}{\headcommand {\slideentry {3}{0}{23}{56/57}{}{0}}}
\@writefile{nav}{\headcommand {\beamer@framepages {56}{57}}}
\@writefile{nav}{\headcommand {\slideentry {3}{0}{24}{58/58}{}{0}}}
\@writefile{nav}{\headcommand {\beamer@framepages {58}{58}}}
\@writefile{nav}{\headcommand {\slideentry {3}{0}{25}{59/61}{}{0}}}
\@writefile{nav}{\headcommand {\beamer@framepages {59}{61}}}
\@writefile{nav}{\headcommand {\slideentry {3}{0}{26}{62/63}{}{0}}}
\@writefile{nav}{\headcommand {\beamer@framepages {62}{63}}}
\@writefile{nav}{\headcommand {\slideentry {3}{0}{27}{64/66}{}{0}}}
\@writefile{nav}{\headcommand {\beamer@framepages {64}{66}}}
\@writefile{nav}{\headcommand {\slideentry {3}{0}{28}{67/67}{}{0}}}
\@writefile{nav}{\headcommand {\beamer@framepages {67}{67}}}
\citation{cheeger}
\@writefile{nav}{\headcommand {\slideentry {3}{0}{29}{68/68}{}{0}}}
\@writefile{nav}{\headcommand {\beamer@framepages {68}{68}}}
\citation{FickusMixon}
\@writefile{nav}{\headcommand {\slideentry {3}{0}{30}{69/69}{}{0}}}
\@writefile{nav}{\headcommand {\beamer@framepages {69}{69}}}
\@writefile{nav}{\headcommand {\slideentry {3}{0}{31}{70/70}{}{0}}}
\@writefile{nav}{\headcommand {\beamer@framepages {70}{70}}}
\@writefile{nav}{\headcommand {\slideentry {3}{0}{32}{71/71}{}{0}}}
\@writefile{nav}{\headcommand {\beamer@framepages {71}{71}}}
\@writefile{nav}{\headcommand {\slideentry {3}{0}{33}{72/72}{}{0}}}
\@writefile{nav}{\headcommand {\beamer@framepages {72}{72}}}
\bibstyle{amsplain}
\bibdata{PhaseAdvance}
\bibcite{ChanEst}{\hyperlink {beamerbibChanEst}{1}}
\bibcite{WirtFlow}{\hyperlink {beamerbibWirtFlow}{2}}
\bibcite{PhaseLift}{\hyperlink {beamerbibPhaseLift}{3}}
\bibcite{BIO}{\hyperlink {beamerbibBIO}{4}}
\bibcite{GerchSax}{\hyperlink {beamerbibGerchSax}{5}}
\bibcite{FastPR}{\hyperlink {beamerbibFastPR}{6}}
\bibcite{calibration}{\hyperlink {beamerbibcalibration}{7}}
\bibcite{GSDiss}{\hyperlink {beamerbibGSDiss}{8}}
\bibcite{FickusMixon}{\hyperlink {beamerbibFickusMixon}{9}}
\bibcite{cheeger}{\hyperlink {beamerbibcheeger}{10}}
\@writefile{nav}{\headcommand {\slideentry {3}{0}{34}{73/73}{}{0}}}
\@writefile{nav}{\headcommand {\beamer@framepages {73}{73}}}
\@writefile{nav}{\headcommand {\slideentry {3}{0}{34}{73/74}{}{0}}}
\@writefile{nav}{\headcommand {\beamer@framepages {73}{74}}}
\@writefile{nav}{\headcommand {\slideentry {3}{0}{34}{73/75}{}{0}}}
\@writefile{nav}{\headcommand {\beamer@framepages {73}{75}}}
\@writefile{nav}{\headcommand {\beamer@partpages {1}{75}}}
\@writefile{nav}{\headcommand {\beamer@subsectionpages {27}{75}}}
\@writefile{nav}{\headcommand {\beamer@sectionpages {27}{75}}}
\@writefile{nav}{\headcommand {\beamer@documentpages {75}}}
\@writefile{nav}{\headcommand {\def \inserttotalframenumber {36}}}
