\relax 
\providecommand\hyper@newdestlabel[2]{}
\providecommand\HyperFirstAtBeginDocument{\AtBeginDocument}
\HyperFirstAtBeginDocument{\ifx\hyper@anchor\@undefined
\global\let\oldcontentsline\contentsline
\gdef\contentsline#1#2#3#4{\oldcontentsline{#1}{#2}{#3}}
\global\let\oldnewlabel\newlabel
\gdef\newlabel#1#2{\newlabelxx{#1}#2}
\gdef\newlabelxx#1#2#3#4#5#6{\oldnewlabel{#1}{{#2}{#3}}}
\AtEndDocument{\ifx\hyper@anchor\@undefined
\let\contentsline\oldcontentsline
\let\newlabel\oldnewlabel
\fi}
\fi}
\global\let\hyper@last\relax 
\gdef\HyperFirstAtBeginDocument#1{#1}
\providecommand\HyField@AuxAddToFields[1]{}
\providecommand\HyField@AuxAddToCoFields[2]{}
\@writefile{toc}{\contentsline {section}{\numberline {1}Problem 1.1}{1}{section.1}}
\@writefile{toc}{\contentsline {section}{\numberline {2}Problem 1.2}{1}{section.2}}
\@writefile{toc}{\contentsline {section}{\numberline {3}Problem 1.3}{2}{section.3}}
\@writefile{lot}{\contentsline {table}{\numberline {1}{\ignorespaces Volumes of spherical shells over dimension}}{2}{table.1}}
\newlabel{tab:shellvol}{{1}{2}{Volumes of spherical shells over dimension}{table.1}{}}
\@writefile{toc}{\contentsline {section}{\numberline {4}Problem 1.4}{2}{section.4}}
