\relax 
\gdef\pointsofq@i{0}
\gdef\bonuspointsofq@i{0}
\gdef\pointsofq@ii{0}
\gdef\bonuspointsofq@ii{0}
\gdef\pointsofq@iii{0}
\gdef\bonuspointsofq@iii{0}
\gdef\pointsofq@iv{0}
\gdef\bonuspointsofq@iv{0}
\gdef\pointsofq@v{0}
\gdef\bonuspointsofq@v{0}
\gdef\pointsofq@vi{0}
\gdef\bonuspointsofq@vi{0}
\gdef\pointsofq@vii{0}
\gdef\bonuspointsofq@vii{0}
\gdef\pointsofq@viii{0}
\gdef\bonuspointsofq@viii{0}
\gdef\pointsofq@ix{0}
\gdef\bonuspointsofq@ix{0}
\gdef\pointsofq@x{0}
\gdef\bonuspointsofq@x{0}
\gdef\pointsofq@xi{0}
\gdef\bonuspointsofq@xi{0}
\gdef\pointsofq@xii{0}
\gdef\bonuspointsofq@xii{0}
\PgInfo{question@1}{1}
\PgInfo{question1@object1}{1}
\newlabel{question@1}{{1}{1}}
\PgInfo{question@2}{1}
\PgInfo{question2@object1}{1}
\newlabel{question@2}{{2}{1}}
\newlabel{part}{{{{(c)}}}{1}}
\PgInfo{question@3}{1}
\PgInfo{question3@object1}{1}
\newlabel{question@3}{{3}{1}}
\PgInfo{question@4}{1}
\PgInfo{question4@object1}{1}
\newlabel{question@4}{{4}{1}}
\PgInfo{question@5}{1}
\PgInfo{question5@object1}{1}
\newlabel{question@5}{{5}{1}}
\PgInfo{question@6}{1}
\PgInfo{question6@object1}{1}
\newlabel{question@6}{{6}{1}}
\PgInfo{question@7}{1}
\PgInfo{question7@object1}{1}
\newlabel{question@7}{{7}{1}}
\PgInfo{question@8}{1}
\PgInfo{question8@object1}{1}
\newlabel{question@8}{{8}{1}}
\PgInfo{question@9}{1}
\PgInfo{question9@object1}{1}
\newlabel{question@9}{{9}{1}}
\PgInfo{question@10}{1}
\PgInfo{question10@object1}{1}
\newlabel{question@10}{{10}{1}}
\PgInfo{question@11}{1}
\PgInfo{question11@object1}{1}
\newlabel{question@11}{{11}{1}}
\gdef\pointsofq@xiii{0}
\gdef\bonuspointsofq@xiii{0}
\newlabel{line}{{12}{2}}
\PgInfo{question@12}{2}
\PgInfo{question12@object1}{2}
\newlabel{question@12}{{12}{2}}
\newlabel{linelast}{{13}{2}}
\PgInfo{question@13}{2}
\PgInfo{question13@object1}{2}
\newlabel{question@13}{{13}{2}}
\gdef\exam@lastpage{2}
\gdef\exam@lastcoverpage{0}
\gdef\exam@totalpages{2}
\gdef\exam@numpoints{0}
\gdef\exam@numbonuspoints{0}
\gdef\exam@numquestions{13}
\gdef\exam@numparts{0}
\gdef\exam@numsubparts{0}
\gdef\exam@numsubsubparts{0}
\gdef\lastpage@withpoints{0}
\gdef\lastpage@withbonuspoints{0}
