\relax 
\gdef\pointsofq@i{12}
\gdef\bonuspointsofq@i{0}
\gdef\pointsofq@ii{12}
\gdef\bonuspointsofq@ii{0}
\gdef\pointsofq@iii{12}
\gdef\bonuspointsofq@iii{0}
\gdef\pointsofq@iv{12}
\gdef\bonuspointsofq@iv{0}
\gdef\pointsofq@v{12}
\gdef\bonuspointsofq@v{0}
\gdef\pointsofq@vi{12}
\gdef\bonuspointsofq@vi{0}
\gdef\pointsofq@vii{12}
\gdef\bonuspointsofq@vii{0}
\gdef\pointsofq@viii{12}
\gdef\bonuspointsofq@viii{0}
\gdef\pointsofq@ix{12}
\gdef\bonuspointsofq@ix{0}
\gdef\pointsofq@x{18}
\gdef\bonuspointsofq@x{0}
\PgInfo{question@1}{1}
\PgInfo{question1@object1}{1}
\newlabel{question@1}{{1}{1}}
\newlabel{firstpoints@onpage@1}{{1}{1}}
\PgInfo{question@2}{1}
\PgInfo{question2@object1}{1}
\newlabel{question@2}{{2}{1}}
\PgInfo{question@3}{1}
\PgInfo{question3@object1}{1}
\newlabel{question@3}{{3}{1}}
\PgInfo{question@4}{1}
\PgInfo{question4@object1}{1}
\newlabel{question@4}{{4}{1}}
\PgInfo{question@5}{1}
\PgInfo{question5@object1}{1}
\newlabel{question@5}{{5}{1}}
\PgInfo{question@6}{1}
\PgInfo{question6@object1}{1}
\newlabel{question@6}{{6}{1}}
\PgInfo{question@7}{1}
\PgInfo{question7@object1}{1}
\newlabel{question@7}{{7}{1}}
\PgInfo{question@8}{1}
\PgInfo{question8@object1}{1}
\newlabel{question@8}{{8}{1}}
\PgInfo{part@8@1}{1}
\PgInfo{question8@object2}{1}
\newlabel{part@8@1}{{a}{1}}
\PgInfo{part@8@2}{1}
\PgInfo{question8@object3}{1}
\newlabel{part@8@2}{{b}{1}}
\newlabel{en:inverse}{{c}{1}}
\PgInfo{part@8@3}{1}
\PgInfo{question8@object4}{1}
\newlabel{part@8@3}{{c}{1}}
\PgInfo{question@9}{1}
\PgInfo{question9@object1}{1}
\newlabel{question@9}{{9}{1}}
\PgInfo{question@10}{1}
\PgInfo{question10@object1}{1}
\newlabel{question@10}{{10}{1}}
\PgInfo{part@10@1}{1}
\PgInfo{question10@object2}{1}
\newlabel{part@10@1}{{a}{1}}
\PgInfo{part@10@2}{1}
\PgInfo{question10@object3}{1}
\newlabel{part@10@2}{{b}{1}}
\gdef\exam@lastpage{1}
\gdef\exam@lastcoverpage{0}
\gdef\exam@totalpages{1}
\gdef\exam@numpoints{126}
\gdef\exam@numbonuspoints{0}
\gdef\exam@numquestions{10}
\gdef\exam@numparts{5}
\gdef\exam@numsubparts{0}
\gdef\exam@numsubsubparts{0}
\gdef\pointsonpage@i{126}
\gdef\lastpage@withpoints{1}
\gdef\lastpage@withbonuspoints{0}
