\relax 
\gdef\pointsofq@i{12}
\gdef\bonuspointsofq@i{0}
\gdef\pointsofq@ii{12}
\gdef\bonuspointsofq@ii{0}
\gdef\pointsofq@iii{12}
\gdef\bonuspointsofq@iii{0}
\PgInfo{question@1}{1}
\PgInfo{question1@object1}{1}
\newlabel{question@1}{{1}{1}}
\newlabel{firstpoints@onpage@1}{{1}{1}}
\PgInfo{question@2}{1}
\PgInfo{question2@object1}{1}
\newlabel{question@2}{{2}{1}}
\PgInfo{question@3}{1}
\PgInfo{question3@object1}{1}
\newlabel{question@3}{{3}{1}}
\PgInfo{question@4}{1}
\PgInfo{question4@object1}{1}
\newlabel{question@4}{{4}{1}}
\gdef\pointsofq@iv{12}
\gdef\bonuspointsofq@iv{0}
\gdef\pointsonpage@i{48}
\gdef\pointsofq@v{12}
\gdef\bonuspointsofq@v{0}
\gdef\pointsofq@vi{12}
\gdef\bonuspointsofq@vi{0}
\gdef\pointsonpage@ii{24}
\PgInfo{question@5}{2}
\PgInfo{question5@object1}{2}
\newlabel{question@5}{{5}{2}}
\newlabel{firstpoints@onpage@2}{{5}{2}}
\PgInfo{question@6}{2}
\PgInfo{question6@object1}{2}
\newlabel{question@6}{{6}{2}}
\PgInfo{question@7}{2}
\PgInfo{question7@object1}{2}
\newlabel{question@7}{{7}{2}}
\gdef\pointsofq@vii{12}
\gdef\bonuspointsofq@vii{0}
\gdef\pointsofq@viii{12}
\gdef\bonuspointsofq@viii{0}
\gdef\pointsonpage@iii{24}
\PgInfo{part@7@1}{3}
\PgInfo{question7@object2}{3}
\newlabel{part@7@1}{{a}{3}}
\newlabel{firstpoints@onpage@3}{{a}{3}}
\PgInfo{part@7@2}{3}
\PgInfo{question7@object3}{3}
\newlabel{part@7@2}{{b}{3}}
\newlabel{en:inverse}{{c}{3}}
\PgInfo{part@7@3}{3}
\PgInfo{question7@object4}{3}
\newlabel{part@7@3}{{c}{3}}
\PgInfo{question7@object5}{3}
\PgInfo{question7@object6}{3}
\PgInfo{question7@object7}{3}
\PgInfo{question@8}{3}
\PgInfo{question8@object1}{3}
\newlabel{question@8}{{8}{3}}
\gdef\pointsofq@ix{12}
\gdef\bonuspointsofq@ix{0}
\gdef\pointsofq@x{18}
\gdef\bonuspointsofq@x{0}
\PgInfo{question@9}{4}
\PgInfo{question9@object1}{4}
\newlabel{question@9}{{9}{4}}
\newlabel{firstpoints@onpage@4}{{9}{4}}
\PgInfo{question@10}{4}
\PgInfo{question10@object1}{4}
\newlabel{question@10}{{10}{4}}
\PgInfo{part@10@1}{4}
\PgInfo{question10@object2}{4}
\newlabel{part@10@1}{{a}{4}}
\PgInfo{part@10@2}{4}
\PgInfo{question10@object3}{4}
\newlabel{part@10@2}{{b}{4}}
\PgInfo{question10@object4}{4}
\PgInfo{question10@object5}{4}
\gdef\exam@lastpage{4}
\gdef\exam@lastcoverpage{0}
\gdef\exam@totalpages{4}
\gdef\exam@numpoints{126}
\gdef\exam@numbonuspoints{0}
\gdef\exam@numquestions{10}
\gdef\exam@numparts{5}
\gdef\exam@numsubparts{0}
\gdef\exam@numsubsubparts{0}
\gdef\pointsonpage@iv{30}
\gdef\lastpage@withpoints{4}
\gdef\lastpage@withbonuspoints{0}
