\relax 
\@writefile{lof}{\contentsline {figure}{\numberline {1}{\ignorespaces Precision vs. Recall}}{2}}
\newlabel{fig:prec_v_recall}{{1}{2}}
\@writefile{lof}{\contentsline {figure}{\numberline {2}{\ignorespaces Precision and Recall vs. Predictions Considered}}{3}}
\newlabel{fig:prec_and_recall}{{2}{3}}
\@writefile{lof}{\contentsline {figure}{\numberline {3}{\ignorespaces MSE vs PCA Dimensions}}{6}}
\newlabel{fig:MSE_v_dims}{{3}{6}}
\gdef\minted@oldcachelist{,
  default.pygstyle,
  default-pyg-prefix.pygstyle,
  09A138D2BF34994459211FFAF280AA04E25DF747D54CF519C402D126B93A5B20.pygtex,
  A7497F849B4D31A150BE38734CA7430CE25DF747D54CF519C402D126B93A5B20.pygtex,
  28036F7D12FB14E7B3F0870897E93700E25DF747D54CF519C402D126B93A5B20.pygtex,
  1C32B25D11B4B785EF83186970D6D4B0E25DF747D54CF519C402D126B93A5B20.pygtex,
  75A27EA2B524C5E6B4447FD4445FD585E25DF747D54CF519C402D126B93A5B20.pygtex,
  47CEF0C5AD0786758EFB7C562323F8F1E25DF747D54CF519C402D126B93A5B20.pygtex,
  755C9CB64A7B4872CD7C6DDC9656ECFEE25DF747D54CF519C402D126B93A5B20.pygtex,
  67E907D72EAD039A9603AFD6609D4C49E25DF747D54CF519C402D126B93A5B20.pygtex,
  3D5024C8E0E8CDFD3B072B3BD449BE63E25DF747D54CF519C402D126B93A5B20.pygtex,
  D8ACA3FDC78C752C242FE3D9096EE4BDE25DF747D54CF519C402D126B93A5B20.pygtex,
  850082B3D69413BB978E488C15182A5A7FD3D7FB07553A3A61A5E77B37196292.pygtex,
  AED70D002DD571EF7803534FBF4229CCD0ED76E6F30DB83F810CCF6DFE84F37D.pygtex,
  2E0661ABACC3909F4252AA7291D2688B0D962ACF13EE9ADE4FEAF41F1C729A31.pygtex}
