\relax 
\gdef\pointsofq@i{0}
\gdef\bonuspointsofq@i{0}
\gdef\pointsofq@ii{0}
\gdef\bonuspointsofq@ii{0}
\gdef\pointsofq@iv{0}
\gdef\bonuspointsofq@iv{0}
\PgInfo{question@1}{1}
\PgInfo{question1@object1}{1}
\newlabel{question@1}{{1}{1}}
\PgInfo{question@2}{1}
\PgInfo{question2@object1}{1}
\newlabel{question@2}{{2}{1}}
\PgInfo{question@3}{1}
\PgInfo{question3@object1}{1}
\newlabel{question@3}{{3}{1}}
\newlabel{part}{{{{(c)}}}{1}}
\gdef\pointsofq@v{0}
\gdef\bonuspointsofq@v{0}
\gdef\pointsofq@vi{0}
\gdef\bonuspointsofq@vi{0}
\gdef\pointsofq@vii{0}
\gdef\bonuspointsofq@vii{0}
\gdef\pointsofq@viii{0}
\gdef\bonuspointsofq@viii{0}
\newlabel{line}{{5}{2}}
\PgInfo{question@5}{2}
\PgInfo{question5@object1}{2}
\newlabel{question@5}{{5}{2}}
\PgInfo{question@6}{2}
\PgInfo{question6@object1}{2}
\newlabel{question@6}{{6}{2}}
\newlabel{linelast}{{7}{2}}
\PgInfo{question@7}{2}
\PgInfo{question7@object1}{2}
\newlabel{question@7}{{7}{2}}
\PgInfo{question@8}{2}
\PgInfo{question8@object1}{2}
\newlabel{question@8}{{8}{2}}
\gdef\pointsofq@ix{0}
\gdef\bonuspointsofq@ix{0}
\gdef\pointsofq@x{0}
\gdef\bonuspointsofq@x{0}
\PgInfo{question@9}{3}
\PgInfo{question9@object1}{3}
\newlabel{question@9}{{9}{3}}
\PgInfo{question@10}{3}
\PgInfo{question10@object1}{3}
\newlabel{question@10}{{10}{3}}
\PgInfo{question@11}{3}
\PgInfo{question11@object1}{3}
\newlabel{question@11}{{11}{3}}
\gdef\pointsofq@xi{0}
\gdef\bonuspointsofq@xi{0}
\gdef\pointsofq@xii{0}
\gdef\bonuspointsofq@xii{0}
\PgInfo{question@12}{4}
\PgInfo{question12@object1}{4}
\newlabel{question@12}{{12}{4}}
\PgInfo{question@13}{4}
\PgInfo{question13@object1}{4}
\newlabel{question@13}{{13}{4}}
\gdef\pointsofq@xiii{0}
\gdef\bonuspointsofq@xiii{0}
\gdef\pointsofq@xiv{0}
\gdef\bonuspointsofq@xiv{0}
\PgInfo{question@14}{5}
\PgInfo{question14@object1}{5}
\newlabel{question@14}{{14}{5}}
\PgInfo{question@15}{5}
\PgInfo{question15@object1}{5}
\newlabel{question@15}{{15}{5}}
\gdef\pointsofq@xv{0}
\gdef\bonuspointsofq@xv{0}
\gdef\pointsofq@xvi{0}
\gdef\bonuspointsofq@xvi{0}
\gdef\pointsofq@xvii{0}
\gdef\bonuspointsofq@xvii{0}
\PgInfo{question@16}{6}
\PgInfo{question16@object1}{6}
\newlabel{question@16}{{16}{6}}
\PgInfo{question@17}{6}
\PgInfo{question17@object1}{6}
\newlabel{question@17}{{17}{6}}
\PgInfo{question@18}{6}
\PgInfo{question18@object1}{6}
\newlabel{question@18}{{18}{6}}
\gdef\pointsofq@xviii{0}
\gdef\bonuspointsofq@xviii{0}
\gdef\exam@lastpage{7}
\gdef\exam@lastcoverpage{0}
\gdef\exam@totalpages{7}
\gdef\exam@numpoints{0}
\gdef\exam@numbonuspoints{0}
\gdef\exam@numquestions{17}
\gdef\exam@numparts{0}
\gdef\exam@numsubparts{0}
\gdef\exam@numsubsubparts{0}
\gdef\lastpage@withpoints{0}
\gdef\lastpage@withbonuspoints{0}
