\relax 
\@writefile{lof}{\contentsline {figure}{\numberline {1}{\ignorespaces Predictions and truth for linear model of stock prices}}{3}}
\@writefile{lof}{\contentsline {figure}{\numberline {2}{\ignorespaces Convergence of Log-Likelihood and Classification Error Rates}}{4}}
\newlabel{fig:p6train}{{2}{4}}
\@writefile{lot}{\contentsline {table}{\numberline {1}{\ignorespaces Performance on training data}}{4}}
\newlabel{tab:p6train}{{1}{4}}
\@writefile{lot}{\contentsline {table}{\numberline {2}{\ignorespaces Performance results of trained model on test data}}{5}}
\newlabel{tab:p6test}{{2}{5}}
