Last Name,First Name,Username,Student ID,Homework 1,Midterm 1,Homework 2,Homework 3,Midterm 2,Homework 4,Midterm 2 After correction,Final,Homework 5,Status
Aguilar,Rebekah,rsaguila,a14203683,19,22,19,20,19,20,24,90,20,Enrolled
Alharbi,Rahaf,rmalharb,a92034490,20,27,20,20,27,20,29,110,,Enrolled
Bae,Ji,jhb006,a13098848,18,19,20,19,14,20,20,79,,Enrolled
Bai,Haoyi,hbai,a91019608,8,24,13,10,12,19,13,59,5,Enrolled
Baireddy,Sirin,sbairedd,a92027010,,,,,,,,,,Dropped
Balboa,Raquel,rbalboa,a11320530,19,23,19,20,18,16,23,82,19,Enrolled
Barron-borden,Brycen,bbarronb,a12887231,16,21,18,,21,15,24,84,20,Enrolled
Bavanaka,Maniroop,mbavanak,a12373464,,,,,,,,,,Dropped
Botezatu,Nicolas,nbotezat,a11902049,17,23,20,19,14,20,22,67,,Enrolled
Byon,Michelle,mibyon,a12350501,20,16,20,,8,20,19,41,20,Enrolled
Cai,Heng,hecai,a91112020,,,,,,,,,,Dropped
Chance,Robert,rchance,a13088857,17,23,20,19,14,19,20,104,18,Enrolled
Chauhan,Parikshit,pachauha,a91091470,,,,,,,,,,Dropped
Chen,Bo,boc014,a92036563,19,25,20,20,29,20,29,111,,Enrolled
Chen,Kezhao,kec106,a92067594,18,24,20,19,14,20,14,79,,Enrolled
Chen,Warren,whc002,a12153863,20,13,20,20,5,,5,,,Dropped
Chiang,Jasmine,jyc098,a12825522,19,23,20,20,29,20,30,100,20,Enrolled
Christopher,Louis,lchristo,a13226966,19,20,20,20,12,,12,,,Dropped
Coronel,Marco,m2corone,a12175545,19,22,20,20,14,20,22,77,,Enrolled
Dang,Tinh,tmd002,a10826967,,1,20,20,11,20,16,77,20,Enrolled
De-thorpe,Richard,rdethorp,a12286488,20,28,20,20,27,20,29,116,20,Enrolled
Desai-chowdhry,Paheli,pdesaich,a11475130,20,27,20,20,26,20,28,98,20,Enrolled
Ding,Zicong,zid003,a92102471,,,,,,,,,,Dropped
Duran,Jose,jmduran,a11593023,18,16,19,19,10,20,19,72,20,Enrolled
Ekiss,Nicole,nekiss,a12054551,20,28,20,20,26,20,27,102,20,Enrolled
Fei,Yunzhu,y3fei,a91100358,20,29,20,20,30,20,30,110,,Enrolled
Feng,Ziwei,zif003,a92057513,20,21,20,19,,,,,,Dropped
Fletcher,Burgundy,bjfletch,a12448289,,,,,,,,,,Dropped
Flores,Bryan,bdflores,a14285829,19,24,20,19,15,19,19,71,20,Enrolled
Fu,Zeng,z8fu,a92121283,,,,,,,,,,Dropped
Fukuda,Kiana,klfukuda,a12789346,19,28,20,20,25,20,27,94,20,Enrolled
Gan,Ruiyang,rugan,a91069389,20,24,20,20,30,20,30,115,,Enrolled
Gao,Ruixuan,r8gao,a92091115,20,30,,19,28,20,28,113,20,Enrolled
Garbuzov,Sarah,sgarbuzo,a12015326,,,,,,,,,,Dropped
Garcia,Kelly,kag020,a12665777,20,19,20,20,15,20,23,102,,Enrolled
Garcia,Kimberly,ksg002,a11052229,20,18,20,20,10,20,20,81,,Enrolled
Gonzalez,Christian,chg003,a11594693,20,25,19,19,23,10,26,111,20,Enrolled
Gozum,Khelsey,kgozum,a12070231,20,21,10,19,5,20,5,,,Dropped
Guerrero,Jaime,jeg070,a12178683,20,28,19,,19,18,24,101,19,Enrolled
Ha,Yuanchi,yuha,a99014850,20,26,,19,20,20,24,112,20,Enrolled
Hakim,Reta,rfhakim,a12733147,19,18,20,18,13,20,21,89,20,Enrolled
Halici,Ege,ehalici,a99080239,16,15,15,19,11,20,13,92,20,Enrolled
Han,Jiaqi,jih132,a91069060,18,11,20,18,4,,4,,,Enrolled
Hatfield,Elijah,ethatfie,a12152270,11,16,,10,11,,11,71,5,Enrolled
Hennessy,Sean,sahennes,a11725311,,7,,10,21,,25,94,0,Enrolled
Ho,Annie,ash022,a99056191,15,14,,10,12,,12,,,Dropped
Ho,Roland,rmho,a12642618,20,28,20,20,26,20,28,101,20,Enrolled
Huang,Kaitlyn,krh005,a12651231,18,28,20,20,26,20,28,91,20,Enrolled
Hung,Tzu-tying,tzhung,a12757996,17,27,20,20,27,18,29,119,20,Enrolled
Ibrahim,Ali,a4ibrahi,a11943038,,,,,,,,,,Dropped
Ignacio,Bernardo,bgignaci,a11257602,19,22,18,,11,16,19,70,19,Enrolled
Ji,Mingyao,m6ji,a92036059,19,27,20,19,25,20,25,98,,Enrolled
Kachi,Lindsey,lkachi,a13159006,19,14,20,19,9,20,18,65,20,Enrolled
Kang,Bowen,b7kang,a91113840,,,,,,,,,,Dropped
Kavner,Jonathan,jkavner,a13171086,18,29,20,17,30,19,30,110,19,Enrolled
Kazi,Arman,ahkazi,a10636035,20,22,20,20,22,,25,76,,Enrolled
Kelley,William,wkelley,a12277073,,,,,,,,,,Dropped
Khodaeegheidary,Elahe,ekhodaee,a12771755,,,,,,,,,,Dropped
Lakshmipathy,Deepak,dlakshmi,a12814781,20,27,20,20,26,20,28,116,20,Enrolled
Lam,Natalie,nplam,a13155646,20,23,14,20,9,,9,,,Dropped
Le,Linh,lnl006,a14201350,,,,,,,,,,Dropped
Lee,Dongkwan,dol079,a13126535,20,17,20,19,12,20,16,69,20,Enrolled
Lee,Justin,jyl063,a12237508,17,27,10,19,18,18,23,96,15,Enrolled
Lee,Seul,sel146,a14222205,20,18,20,20,12,20,17,72,,Enrolled
Li,Peiyi,pel049,a92087641,20,26,19,20,29,20,30,88,20,Enrolled
Li,Songqing,sol008,a91052209,,24,19,20,15,19,15,83,19,Enrolled
Li,Yinghao,yil574,a13410656,19,29,20,20,28,20,29,115,20,Enrolled
Li,Yonghao,yol028,a91052345,20,28,20,20,26,20,28,114,,Enrolled
Lin,Qiwei,qil075,a92040019,,,,,,,,,,Dropped
Liu,Hansong,hal225,a92070069,20,29,20,20,28,20,29,104,20,Enrolled
Liu,Qing,qil074,a92087703,20,24,20,19,16,20,16,83,20,Enrolled
Liu,Weichen,wel008,a92143110,,,,,,,,,,Dropped
Ma,Liqi,l2ma,a99416306,19,20,20,19,12,20,21,98,20,Enrolled
Matsuka,Shoun,smatsuka,a92111221,17,30,20,20,22,19,26,112,19,Enrolled
Maynard,Jennifer,jvmaynar,a12362809,,,,,,,,,,Dropped
Mccleery,Trevor,tamcclee,a14234522,,,,,,,,,,Dropped
Menke,Joseph,jmenke,a12116403,19,16,20,18,11,20,15,95,18,Enrolled
Monroy,Jason,jtmonroy,a12326255,,,,,,,,,,Dropped
Moreno,Emily,emmoreno,a12234292,20,28,20,20,23,20,27,91,20,Enrolled
Nguyen,Peter,ptn003,a11906818,4,,,5,4,,4,,,Dropped
No,Justin,j2no,a12052722,19,24,20,19,12,20,17,80,,Enrolled
Park,Gun,gupark,a98090679,,,,,,,,,,Dropped
Peng,Yangjia,yap006,a91108664,20,22,20,20,,20,,83,,Enrolled
Pham,Tina,tip012,a14241885,20,26,20,20,27,20,28,117,,Enrolled
Proudfoot,Holly,hproudfoot,,,,,,,,,,,
Rayford,Jarviel,jrayford,a12275837,13,22,19,20,,20,,85,20,Enrolled
Reyes,Kimberly,kireyes,a12172486,20,26,20,20,23,20,27,99,,Enrolled
Salcedo,Terral,tsalcedo,a13069596,19,22,15,19,18,20,23,86,,Enrolled
Samarasinghe,Yohann,ysamaras,a12687013,19,24,19,20,24,5,26,95,15,Enrolled
Scheble,Miya,mscheble,a12882840,20,24,19,19,13,20,21,85,10,Enrolled
Shaw,Danielle,d3shaw,a13090893,20,21,20,19,5,,5,81,,Enrolled
Shettlesworth,Rex,rshettle,a10850393,,15,5,9,6,19,12,70,20,Enrolled
Shi,Yuejun,yus224,a14279521,20,29,20,15,29,20,29,120,20,Enrolled
Simpson,Alexander,agsimpso,a11340389,,18,20,19,7,20,7,82,20,Enrolled
Soto,Erick,eehuerta,a13120331,18,21,20,,22,10,22,,,Dropped
Sprouse,Scott,ssprouse,a12721880,19,27,19,20,27,20,27,106,20,Enrolled
Sun,Haoran,hsun,a91041643,18,27,20,,,,,,,Dropped
Sun,Ruoyu,rus001,a92043611,20,29,20,20,22,20,26,118,,Enrolled
Tadepalli,Krishna,ktadepal,a92158135,,19,15,10,21,,21,,,Dropped
Tan,Xin,xit027,a14220271,,24,20,20,17,20,17,88,20,Enrolled
Thoeny,Erika,ethoeny,a12720102,20,25,20,19,20,20,24,89,19,Enrolled
Tsai,Yung-chi,yut054,a92047013,20,28,20,20,19,20,24,87,,Enrolled
Uppal,Manwinder,muppal,a12326108,20,24,19,19,19,20,24,72,20,Enrolled
Uy,Cathleen,cpuy,a11416502,17,24,13,10,23,,27,90,,Enrolled
Van-der-puyl,Vincent,vavander,a13306417,19,26,20,19,28,19,29,107,14,Enrolled
Wang,Qiuyang,qiw069,a92125481,19,23,20,19,27,20,28,98,,Enrolled
Wang,Russell,rewang,a12353474,,,12,19,,,,,,Dropped
Wang,Weiran,wew103,a92118876,19,26,20,18,20,,25,77,20,Enrolled
Wang,Xiheng,xiw216,a92053861,19,20,20,19,28,20,28,91,,Enrolled
Wang,Yanying,yyw005,a91130481,20,29,20,20,17,20,24,88,,Enrolled
Wilkes,Lauren,lwilkes,a11175191,15,13,19,20,11,20,11,63,20,Enrolled
Wu,Kelly,kew062,a12178506,,,,,,,,,,Dropped
Xu,Jiayi,jix080,a92022486,18,19,20,19,16,20,22,100,,Enrolled
Xuan,Yinan,yxuan,a99056024,20,29,,19,26,20,28,114,20,Enrolled
Yang,Mengyu,mey027,a92045000,17,16,19,,10,20,19,71,20,Enrolled
Yang,Sue,smy011,a13125276,,,,,,,,,,Dropped
Yeu,Steven,syeu,a10720198,,,,,,,,,,Dropped
Zeng,Cong,czeng,a91103671,16,26,20,20,15,20,15,110,15,Enrolled
Zhang,Bolun,boz021,a91069539,,,,,,,,,,Dropped
Zhang,Jiaming,jiz304,a92113238,,,,,,,,,,Dropped
Zhang,Yiqun,yiz373,a92038488,,,,,,,,,,Dropped
Zhao,Ziyi,ziz133,a92081401,20,30,20,20,30,20,30,117,20,Enrolled
Zhou,Jingyao,jiz358,a92071514,,,,,,,,,,Dropped
Zhu,Cuncheng,cuzhu,a92042571,17,25,20,19,25,19,25,116,18,Enrolled
Zhu,Jiawei,jizhu,a92120389,20,23,,,,,,,,Dropped
Zhu,Yue,yuz435,a92020065,19,28,20,19,27,20,27,109,20,Enrolled
