\relax 
\providecommand\hyper@newdestlabel[2]{}
\providecommand\HyperFirstAtBeginDocument{\AtBeginDocument}
\HyperFirstAtBeginDocument{\ifx\hyper@anchor\@undefined
\global\let\oldcontentsline\contentsline
\gdef\contentsline#1#2#3#4{\oldcontentsline{#1}{#2}{#3}}
\global\let\oldnewlabel\newlabel
\gdef\newlabel#1#2{\newlabelxx{#1}#2}
\gdef\newlabelxx#1#2#3#4#5#6{\oldnewlabel{#1}{{#2}{#3}}}
\AtEndDocument{\ifx\hyper@anchor\@undefined
\let\contentsline\oldcontentsline
\let\newlabel\oldnewlabel
\fi}
\fi}
\global\let\hyper@last\relax 
\gdef\HyperFirstAtBeginDocument#1{#1}
\providecommand\HyField@AuxAddToFields[1]{}
\providecommand\HyField@AuxAddToCoFields[2]{}
\@writefile{toc}{\beamer@endinputifotherversion {3.24pt}}
\@writefile{nav}{\beamer@endinputifotherversion {3.24pt}}
\@writefile{nav}{\headcommand {\slideentry {0}{0}{1}{1/1}{}{0}}}
\@writefile{nav}{\headcommand {\beamer@framepages {1}{1}}}
\@writefile{nav}{\headcommand {\slideentry {0}{0}{2}{2/2}{}{0}}}
\@writefile{nav}{\headcommand {\beamer@framepages {2}{2}}}
\@writefile{toc}{\beamer@sectionintoc {1}{Overview}{3}{0}{1}}
\@writefile{nav}{\headcommand {\sectionentry {1}{Overview}{3}{Overview}{0}}}
\@writefile{nav}{\headcommand {\beamer@sectionpages {1}{2}}}
\@writefile{nav}{\headcommand {\beamer@subsectionpages {1}{2}}}
\@writefile{nav}{\headcommand {\slideentry {1}{0}{3}{3/5}{}{0}}}
\@writefile{nav}{\headcommand {\beamer@framepages {3}{5}}}
\citation{WirtFlow}
\newlabel{fig:crystal}{{1}{6}{Overview}{Doc-Start}{}}
\@writefile{snm}{\beamer@slide {fig:crystal}{6}}
\@writefile{nav}{\headcommand {\slideentry {1}{0}{4}{6/6}{}{0}}}
\@writefile{nav}{\headcommand {\beamer@framepages {6}{6}}}
\@writefile{nav}{\headcommand {\slideentry {1}{0}{5}{7/7}{}{0}}}
\@writefile{nav}{\headcommand {\beamer@framepages {7}{7}}}
\citation{GerchSax}
\citation{BIO}
\citation{PhaseLift}
\citation{WirtFlow}
\citation{FastPR}
\@writefile{nav}{\headcommand {\slideentry {1}{0}{6}{8/8}{}{0}}}
\@writefile{nav}{\headcommand {\beamer@framepages {8}{8}}}
\@writefile{toc}{\beamer@sectionintoc {2}{Literature Review}{9}{0}{2}}
\@writefile{nav}{\headcommand {\sectionentry {2}{Literature Review}{9}{Literature Review}{0}}}
\@writefile{nav}{\headcommand {\beamer@sectionpages {3}{8}}}
\@writefile{nav}{\headcommand {\beamer@subsectionpages {3}{8}}}
\newlabel{fig:GerchSax}{{2}{9}{Literature Review}{Doc-Start}{}}
\@writefile{snm}{\beamer@slide {fig:GerchSax}{9}}
\@writefile{nav}{\headcommand {\slideentry {2}{0}{7}{9/9}{}{0}}}
\@writefile{nav}{\headcommand {\beamer@framepages {9}{9}}}
\@writefile{nav}{\headcommand {\slideentry {2}{0}{8}{10/14}{}{0}}}
\@writefile{nav}{\headcommand {\beamer@framepages {10}{14}}}
\citation{GSDiss}
\citation{GSDiss}
\citation{GSDiss}
\@writefile{nav}{\headcommand {\slideentry {2}{0}{9}{15/17}{}{0}}}
\@writefile{nav}{\headcommand {\beamer@framepages {15}{17}}}
\@writefile{nav}{\headcommand {\slideentry {2}{0}{10}{18/20}{}{0}}}
\@writefile{nav}{\headcommand {\beamer@framepages {18}{20}}}
\citation{PhaseLift}
\citation{PhaseLift}
\@writefile{nav}{\headcommand {\slideentry {2}{0}{11}{21/22}{}{0}}}
\@writefile{nav}{\headcommand {\beamer@framepages {21}{22}}}
\citation{ChanEst}
\citation{ChanEst}
\@writefile{nav}{\headcommand {\slideentry {2}{0}{12}{23/24}{}{0}}}
\@writefile{nav}{\headcommand {\beamer@framepages {23}{24}}}
\@writefile{nav}{\headcommand {\slideentry {2}{0}{13}{25/28}{}{0}}}
\@writefile{nav}{\headcommand {\beamer@framepages {25}{28}}}
\@writefile{nav}{\headcommand {\slideentry {2}{0}{14}{29/32}{}{0}}}
\@writefile{nav}{\headcommand {\beamer@framepages {29}{32}}}
\@writefile{nav}{\headcommand {\slideentry {2}{0}{15}{33/33}{}{0}}}
\@writefile{nav}{\headcommand {\beamer@framepages {33}{33}}}
\@writefile{nav}{\headcommand {\slideentry {2}{0}{16}{34/35}{}{0}}}
\@writefile{nav}{\headcommand {\beamer@framepages {34}{35}}}
\@writefile{toc}{\beamer@sectionintoc {3}{Current/Future Work}{36}{0}{3}}
\@writefile{nav}{\headcommand {\sectionentry {3}{Current/Future Work}{36}{Current/Future Work}{0}}}
\@writefile{nav}{\headcommand {\beamer@sectionpages {9}{35}}}
\@writefile{nav}{\headcommand {\beamer@subsectionpages {9}{35}}}
\@writefile{nav}{\headcommand {\slideentry {3}{0}{17}{36/37}{}{0}}}
\@writefile{nav}{\headcommand {\beamer@framepages {36}{37}}}
\@writefile{nav}{\headcommand {\slideentry {3}{0}{18}{38/39}{}{0}}}
\@writefile{nav}{\headcommand {\beamer@framepages {38}{39}}}
\@writefile{nav}{\headcommand {\slideentry {3}{0}{19}{40/41}{}{0}}}
\@writefile{nav}{\headcommand {\beamer@framepages {40}{41}}}
\@writefile{nav}{\headcommand {\slideentry {3}{0}{20}{42/43}{}{0}}}
\@writefile{nav}{\headcommand {\beamer@framepages {42}{43}}}
\@writefile{nav}{\headcommand {\slideentry {3}{0}{21}{44/45}{}{0}}}
\@writefile{nav}{\headcommand {\beamer@framepages {44}{45}}}
\@writefile{nav}{\headcommand {\slideentry {3}{0}{22}{46/46}{}{0}}}
\@writefile{nav}{\headcommand {\beamer@framepages {46}{46}}}
\@writefile{nav}{\headcommand {\slideentry {3}{0}{23}{47/47}{}{0}}}
\@writefile{nav}{\headcommand {\beamer@framepages {47}{47}}}
\@writefile{nav}{\headcommand {\slideentry {3}{0}{24}{48/48}{}{0}}}
\@writefile{nav}{\headcommand {\beamer@framepages {48}{48}}}
\citation{FastPR}
\citation{FastPR}
\citation{FastPR}
\@writefile{nav}{\headcommand {\slideentry {3}{0}{25}{49/51}{}{0}}}
\@writefile{nav}{\headcommand {\beamer@framepages {49}{51}}}
\citation{sintheta}
\@writefile{nav}{\headcommand {\slideentry {3}{0}{26}{52/52}{}{0}}}
\@writefile{nav}{\headcommand {\beamer@framepages {52}{52}}}
\citation{robust}
\@writefile{nav}{\headcommand {\slideentry {3}{0}{27}{53/53}{}{0}}}
\@writefile{nav}{\headcommand {\beamer@framepages {53}{53}}}
\@writefile{nav}{\headcommand {\slideentry {3}{0}{28}{54/54}{}{0}}}
\@writefile{nav}{\headcommand {\beamer@framepages {54}{54}}}
\@writefile{nav}{\headcommand {\slideentry {3}{0}{29}{55/55}{}{0}}}
\@writefile{nav}{\headcommand {\beamer@framepages {55}{55}}}
\@writefile{nav}{\headcommand {\slideentry {3}{0}{30}{56/56}{}{0}}}
\@writefile{nav}{\headcommand {\beamer@framepages {56}{56}}}
\@writefile{nav}{\headcommand {\slideentry {3}{0}{31}{57/57}{}{0}}}
\@writefile{nav}{\headcommand {\beamer@framepages {57}{57}}}
\@writefile{nav}{\headcommand {\slideentry {3}{0}{32}{58/58}{}{0}}}
\@writefile{nav}{\headcommand {\beamer@framepages {58}{58}}}
\citation{calibration}
\@writefile{nav}{\headcommand {\slideentry {3}{0}{33}{59/59}{}{0}}}
\@writefile{nav}{\headcommand {\beamer@framepages {59}{59}}}
\@writefile{nav}{\headcommand {\slideentry {3}{0}{34}{60/60}{}{0}}}
\@writefile{nav}{\headcommand {\beamer@framepages {60}{60}}}
\bibstyle{amsplain}
\bibdata{PhaseAdvance}
\bibcite{ChanEst}{\hyperlink {beamerbibChanEst}{1}}
\bibcite{WirtFlow}{\hyperlink {beamerbibWirtFlow}{2}}
\bibcite{PhaseLift}{\hyperlink {beamerbibPhaseLift}{3}}
\bibcite{BIO}{\hyperlink {beamerbibBIO}{4}}
\bibcite{GerchSax}{\hyperlink {beamerbibGerchSax}{5}}
\bibcite{robust}{\hyperlink {beamerbibrobust}{6}}
\bibcite{FastPR}{\hyperlink {beamerbibFastPR}{7}}
\bibcite{calibration}{\hyperlink {beamerbibcalibration}{8}}
\bibcite{GSDiss}{\hyperlink {beamerbibGSDiss}{9}}
\bibcite{sintheta}{\hyperlink {beamerbibsintheta}{10}}
\@writefile{nav}{\headcommand {\slideentry {3}{0}{35}{61/61}{}{0}}}
\@writefile{nav}{\headcommand {\beamer@framepages {61}{61}}}
\@writefile{nav}{\headcommand {\slideentry {3}{0}{35}{61/62}{}{0}}}
\@writefile{nav}{\headcommand {\beamer@framepages {61}{62}}}
\@writefile{nav}{\headcommand {\slideentry {3}{0}{35}{61/63}{}{0}}}
\@writefile{nav}{\headcommand {\beamer@framepages {61}{63}}}
\@writefile{nav}{\headcommand {\beamer@partpages {1}{63}}}
\@writefile{nav}{\headcommand {\beamer@subsectionpages {36}{63}}}
\@writefile{nav}{\headcommand {\beamer@sectionpages {36}{63}}}
\@writefile{nav}{\headcommand {\beamer@documentpages {63}}}
\@writefile{nav}{\headcommand {\def \inserttotalframenumber {37}}}
