\relax 
\gdef\minted@oldcachelist{,
  default.pygstyle,
  default-pyg-prefix.pygstyle,
  5357FC95EAE8F0FC8E558120BB222E04E152DF0B778EFD8BAF5690490B94DEC9.pygtex,
  11DF03F9767A8A8FEA833AFCC553D42CE32F73E18FF7E06CE4649EE700D6A06D.pygtex,
  C72C3C640FB1C3806CC83A57F31FF38CE152DF0B778EFD8BAF5690490B94DEC9.pygtex,
  6A890197F42447B162B1619909D6A9EB195F32E80215D07C8A73AA1A0944FE58.pygtex,
  68FB3495C790EF76BCC2826B89674A53E152DF0B778EFD8BAF5690490B94DEC9.pygtex,
  79535E53D8215EAD1CE90B68E29FB780260C933B0D013E114D51FB31797A6D81.pygtex,
  7AD441D07B56EE9B09D65A26B0C6F626E152DF0B778EFD8BAF5690490B94DEC9.pygtex,
  7F8591B1ACA1F98D410D7F653D3E24973B68D41153351C8CE90430F76FC6D2A8.pygtex}
