\relax 
\@writefile{lot}{\contentsline {table}{\numberline {1}{\ignorespaces Results for EM update in Noisy OR CPT}}{1}}
\newlabel{tab:emresults}{{1}{1}}
\@writefile{lof}{\contentsline {figure}{\numberline {1}{\ignorespaces $f(x) = \qopname  \relax o{log}\qopname  \relax o{cosh}(x)$ and $Q(x, y) = f(y) + f'(y)(x - y) + \frac  {1}{2}(x - y)^2$}}{2}}
\newlabel{fig:auxfcn}{{1}{2}}
\@writefile{lof}{\contentsline {figure}{\numberline {2}{\ignorespaces Convergence of auxiliary function method for $f(x)$}}{3}}
\newlabel{fig:auxconv}{{2}{3}}
\@writefile{lof}{\contentsline {figure}{\numberline {3}{\ignorespaces Newton's method fails for $x_0 = -2$. Succeeds somewhat for $x_0 = 1$.}}{4}}
\newlabel{fig:NewtonFail}{{3}{4}}
\@writefile{lof}{\contentsline {figure}{\numberline {4}{\ignorespaces Success for $x_0 = -1.085$. Failure for $x_0 = -1.09$}}{4}}
\newlabel{fig:NewtonBoundary}{{4}{4}}
\@writefile{lof}{\contentsline {figure}{\numberline {5}{\ignorespaces Plot of $g(x)$ versus $x$}}{5}}
\newlabel{fig:gplot}{{5}{5}}
\@writefile{lof}{\contentsline {figure}{\numberline {6}{\ignorespaces Convergence of auxiliary function method for $g(x)$}}{5}}
\newlabel{fig:gconv}{{6}{5}}
